{
  "authors": [
    "Christopho"
  ],
  "categories": [
    "Solarus"
  ],
  "creation_date": "2012-04-04",
  "excerpt": "Après plusieurs semaines d'attente, je suis heureux de vous annoncer que la version anglaise de....",
  "id": "2012-04-04-zelda-solarus-dx-en-anglais",
  "image_thumbnail": "../../../../../assets/blog/default_article_thumbnail.jpg",
  "page_override": {
    "meta_description": "",
    "meta_image": "../../../../../assets/images/meta_image_fallback.jpg",
    "meta_title": "Zelda Solarus DX en anglais",
    "parent": "news",
    "slug": "news/2012-04-04-zelda-solarus-dx-en-anglais",
    "title": "Zelda Solarus DX en anglais"
  },
  "page_slug": "news/2012-04-04-zelda-solarus-dx-en-anglais",
  "publish": true,
  "title": "Zelda Solarus DX en anglais"
}