{
  "authors": [
    "Christopho"
  ],
  "categories": [
    "Solarus"
  ],
  "creation_date": "2001-09-24",
  "excerpt": "Salut à tous !\n\nLes dérangements causés par la fermeture de Babeloueb n'ont pas empêcher Zelda : Mystery of Solarus de se construire un peu plus.....",
  "id": "2001-09-24-quatre-screenshots-du-chateau",
  "image_thumbnail": "../../../../../assets/blog/default_article_thumbnail.jpg",
  "page_override": {
    "meta_description": "",
    "meta_image": "../../../../../assets/images/meta_image_fallback.jpg",
    "meta_title": "Quatre screenshots du Château",
    "parent": "news",
    "slug": "news/2001-09-24-quatre-screenshots-du-chateau",
    "title": "Quatre screenshots du Château"
  },
  "page_slug": "news/2001-09-24-quatre-screenshots-du-chateau",
  "publish": true,
  "title": "Quatre screenshots du Château"
}