{
  "authors": [
    "Christopho"
  ],
  "categories": [
    "Solarus"
  ],
  "creation_date": "2006-04-01",
  "excerpt": "Salut à tous :D Nous avons beaucoup travaillé sur le projet Zelda M'C ces dernières semaines. Nous avons bossé sur l'intro et sur les....",
  "id": "2006-04-01-date-de-sortie-de-zelda-mercuris-chest",
  "image_thumbnail": "../../../../../assets/blog/default_article_thumbnail.jpg",
  "page_override": {
    "meta_description": "",
    "meta_image": "../../../../../assets/images/meta_image_fallback.jpg",
    "meta_title": "Date de sortie de Zelda Mercuris' Chest",
    "parent": "news",
    "slug": "news/2006-04-01-date-de-sortie-de-zelda-mercuris-chest",
    "title": "Date de sortie de Zelda Mercuris' Chest"
  },
  "page_slug": "news/2006-04-01-date-de-sortie-de-zelda-mercuris-chest",
  "publish": true,
  "title": "Date de sortie de Zelda Mercuris' Chest"
}