{
  "authors": [
    "Christopho"
  ],
  "categories": [
    "Solarus"
  ],
  "creation_date": "2002-05-11",
  "excerpt": "Nous avons relooké le forum aux couleurs du site ! Nous sommes en train de terminer les dernières icônes pour que ce soit parfait !\nPuis, comme....",
  "id": "2002-05-11-nouvelle-peau-pour-le-forum",
  "image_thumbnail": "../../../../../assets/blog/default_article_thumbnail.jpg",
  "page_override": {
    "meta_description": "",
    "meta_image": "../../../../../assets/images/meta_image_fallback.jpg",
    "meta_title": "Nouvelle peau pour le forum",
    "parent": "news",
    "slug": "news/2002-05-11-nouvelle-peau-pour-le-forum",
    "title": "Nouvelle peau pour le forum"
  },
  "page_slug": "news/2002-05-11-nouvelle-peau-pour-le-forum",
  "publish": true,
  "title": "Nouvelle peau pour le forum"
}