{
  "delegate_entity_type": "game",
  "has_breadcrumb": true,
  "meta_description": "Solarus game presentation and download page.",
  "meta_image": "../../../assets/images/meta_image_fallback.jpg",
  "meta_title": "Game page",
  "parent": "games",
  "publish": true
}