{
  "authors": [
    "Olivier Cléro"
  ],
  "categories": [
    "Solarus"
  ],
  "creation_date": "2019-08-10",
  "excerpt": "Une mise à jour qui corrige principalement les soucis liés à l'utilisation d'OpenGL.",
  "id": "2019-08-10-solarus-1-6-1-bugfix-release",
  "image_thumbnail": "2019-08-10-solarus-1-6-1-bugfix-release/cover.jpg",
  "page_override": {
    "meta_description": "Une mise à jour qui corrige principalement les soucis liés à l'utilisation d'OpenGL.",
    "meta_image": "../../../../../assets/images/meta_image_fallback.jpg",
    "meta_title": "Version de maintenance 1.6.1 pour Solarus",
    "parent": "news",
    "slug": "news/2019-08-10-solarus-1-6-1-bugfix-release",
    "title": "Version de maintenance 1.6.1 pour Solarus"
  },
  "page_slug": "news/2019-08-10-solarus-1-6-1-bugfix-release",
  "publish": true,
  "title": "Version de maintenance 1.6.1 pour Solarus"
}