{
  "excerpt": "Comment utiliser les graphismes et musiques de Legend of Zelda: A Link to the Past dans votre quête.",
  "id": "book-chapter-solarus-video-tutorial-basics-zelda-resource-pack",
  "index": 2,
  "origin_tree": "development/tutorials/solarus-video-tutorial",
  "page_override": {
    "meta_description": "Comment utiliser les graphismes et musiques de Legend of Zelda: A Link to the Past dans votre quête.",
    "meta_image": "../../../../book/tutorial/solarus-video-tutorial/images/thumbnail.png",
    "meta_title": "Pack de ressources Zelda",
    "parent": "development/tutorials/solarus-video-tutorial",
    "slug": "development/tutorials/solarus-video-tutorial/zelda-resource-pack",
    "title": "Pack de ressources Zelda"
  },
  "page_slug": "development/tutorials/solarus-video-tutorial/zelda-resource-pack",
  "publish": true,
  "title": "Pack de ressources Zelda"
}
