{
  "authors": [
    "Christopho"
  ],
  "categories": [
    "Solarus"
  ],
  "creation_date": "2002-11-04",
  "excerpt": "Après deux semaines pendant lesquelles DaN nous a hébergés provisoirement (merci à lui !), nous voilà enfin sur Consolemul. Cet hébergement est....",
  "id": "2002-11-04-demenagement-termine",
  "image_thumbnail": "../../../../../assets/blog/default_article_thumbnail.jpg",
  "page_override": {
    "meta_description": "",
    "meta_image": "../../../../../assets/images/meta_image_fallback.jpg",
    "meta_title": "Déménagement terminé !",
    "parent": "news",
    "slug": "news/2002-11-04-demenagement-termine",
    "title": "Déménagement terminé !"
  },
  "page_slug": "news/2002-11-04-demenagement-termine",
  "publish": true,
  "title": "Déménagement terminé !"
}