{
  "authors": [
    "Christopho"
  ],
  "categories": [
    "Solarus"
  ],
  "creation_date": "2021-04-06",
  "excerpt": "A new bugfix release has been released for Solarus.",
  "id": "2021-04-06-solarus-1-6-5-bugfix-release",
  "image_thumbnail": "images/cover.jpeg",
  "page_override": {
    "meta_description": "A new bugfix release has been released for Solarus.",
    "meta_image": "images/cover.jpeg",
    "meta_title": "Bugfix release 1.6.5 for Solarus",
    "parent": "news",
    "slug": "news/2021-04-06-solarus-1-6-5-bugfix-release",
    "title": "Bugfix release 1.6.5 for Solarus"
  },
  "page_slug": "news/2021-04-06-solarus-1-6-5-bugfix-release",
  "publish": true,
  "title": "Bugfix release 1.6.5 for Solarus"
}