{
  "authors": [
    "Binbin"
  ],
  "categories": [
    "Solarus"
  ],
  "creation_date": "2018-08-03",
  "excerpt": "Par cette chaleur intense et en période de vacances d'été, il est temps pour nous de faire le point sur le projet A Link to the Dream, notre beau....",
  "id": "2018-08-03-a-link-to-the-dream-point-sur-le-projet-et-game-jam",
  "image_thumbnail": "../../../../../assets/blog/default_article_thumbnail.jpg",
  "page_override": {
    "meta_description": "",
    "meta_image": "../../../../../assets/images/meta_image_fallback.jpg",
    "meta_title": "A Link to the Dream : Point sur le projet et Game Jam",
    "parent": "news",
    "slug": "news/2018-08-03-a-link-to-the-dream-point-sur-le-projet-et-game-jam",
    "title": "A Link to the Dream : Point sur le projet et Game Jam"
  },
  "page_slug": "news/2018-08-03-a-link-to-the-dream-point-sur-le-projet-et-game-jam",
  "publish": true,
  "title": "A Link to the Dream : Point sur le projet et Game Jam"
}