{
  "authors": [
    "Christopho"
  ],
  "categories": [
    "Solarus"
  ],
  "creation_date": "2001-07-03",
  "excerpt": "Ouverture du forum spécial Zelda Solarus ! Venez nombreux pour donner vos impressions ou vos suggestions sur le jeu ! Visiter&nbsp;le&nbsp;forum.",
  "id": "2001-07-03-ouverture-du-forum",
  "image_thumbnail": "../../../../../assets/blog/default_article_thumbnail.jpg",
  "page_override": {
    "meta_description": "",
    "meta_image": "../../../../../assets/images/meta_image_fallback.jpg",
    "meta_title": "Ouverture du forum",
    "parent": "news",
    "slug": "news/2001-07-03-ouverture-du-forum",
    "title": "Ouverture du forum"
  },
  "page_slug": "news/2001-07-03-ouverture-du-forum",
  "publish": true,
  "title": "Ouverture du forum"
}