{
  "delegate_entity_type": "book-chapter",
  "has_breadcrumb": true,
  "meta_description": "Book chapter page.",
  "meta_image": "../../../assets/images/meta_image_fallback.jpg",
  "meta_title": "Tutorial page",
  "parent": "development/tutorials",
  "publish": true
}