{
  "authors": [
    "Christopho"
  ],
  "categories": [
    "Solarus"
  ],
  "creation_date": "2001-11-03",
  "excerpt": "Salut à tous !!\n\nCes (trop) courtes vacances ont été très profitables à la programmation de Zelda : Mystery of Solarus. En effet toutes les....",
  "id": "2001-11-03-quelques-nouvelles",
  "image_thumbnail": "../../../../../assets/blog/default_article_thumbnail.jpg",
  "page_override": {
    "meta_description": "",
    "meta_image": "../../../../../assets/images/meta_image_fallback.jpg",
    "meta_title": "Quelques nouvelles",
    "parent": "news",
    "slug": "news/2001-11-03-quelques-nouvelles",
    "title": "Quelques nouvelles"
  },
  "page_slug": "news/2001-11-03-quelques-nouvelles",
  "publish": true,
  "title": "Quelques nouvelles"
}