{
  "authors": [
    "Christopho"
  ],
  "categories": [
    "Solarus"
  ],
  "creation_date": "2003-12-23",
  "excerpt": "Mis à part dans la newsletter, ça fait un certain temps que nous ne vous donnions plus de nouvelles du développement de notre prochaine création,....",
  "id": "2003-12-23-des-nouvelles-du-projet-zap",
  "image_thumbnail": "../../../../../assets/blog/default_article_thumbnail.jpg",
  "page_override": {
    "meta_description": "",
    "meta_image": "../../../../../assets/images/meta_image_fallback.jpg",
    "meta_title": "Des nouvelles du projet ZAP",
    "parent": "news",
    "slug": "news/2003-12-23-des-nouvelles-du-projet-zap",
    "title": "Des nouvelles du projet ZAP"
  },
  "page_slug": "news/2003-12-23-des-nouvelles-du-projet-zap",
  "publish": true,
  "title": "Des nouvelles du projet ZAP"
}