{
  "authors": [
    "Binbin"
  ],
  "categories": [
    "Solarus"
  ],
  "creation_date": "2018-01-29",
  "excerpt": "Cette semaine, pour le projet A Link to the Dream, je vous présente la plage Coco qui se trouve au sud du village des Mouettes, pas loin du donjon....",
  "id": "2018-01-29-la-plage-coco",
  "image_thumbnail": "../../../../../assets/blog/default_article_thumbnail.jpg",
  "page_override": {
    "meta_description": "",
    "meta_image": "../../../../../assets/images/meta_image_fallback.jpg",
    "meta_title": "La plage Coco",
    "parent": "news",
    "slug": "news/2018-01-29-la-plage-coco",
    "title": "La plage Coco"
  },
  "page_slug": "news/2018-01-29-la-plage-coco",
  "publish": true,
  "title": "La plage Coco"
}