{
  "excerpt": "Comment afficher une image à l'écran pendant le jeu avec les scripts Lua.",
  "id": "book-chapter-solarus-video-tutorial-basics-display-an-image",
  "index": 17,
  "origin_tree": "development/tutorials/solarus-video-tutorial",
  "page_override": {
    "meta_description": "Comment afficher une image à l'écran pendant le jeu avec les scripts Lua.",
    "meta_image": "../../../../book/tutorial/solarus-video-tutorial/images/thumbnail.png",
    "meta_title": "Comment afficher une image",
    "parent": "development/tutorials/solarus-video-tutorial",
    "slug": "development/tutorials/solarus-video-tutorial/display-an-image",
    "title": "Comment afficher une image"
  },
  "page_slug": "development/tutorials/solarus-video-tutorial/display-an-image",
  "publish": true,
  "title": "Comment afficher une image"
}
