{
  "authors": [
    "Christopho"
  ],
  "categories": [
    "Solarus"
  ],
  "creation_date": "2009-07-16",
  "excerpt": "En quelques jours, le développement de notre projet Zelda : Mystery of Solarus DX a beaucoup avancé. Avant tout, voici l'entrée du premier donjon....",
  "id": "2009-07-16-des-images-du-premier-donjon",
  "image_thumbnail": "../../../../../assets/blog/default_article_thumbnail.jpg",
  "page_override": {
    "meta_description": "",
    "meta_image": "../../../../../assets/images/meta_image_fallback.jpg",
    "meta_title": "Des images du premier donjon",
    "parent": "news",
    "slug": "news/2009-07-16-des-images-du-premier-donjon",
    "title": "Des images du premier donjon"
  },
  "page_slug": "news/2009-07-16-des-images-du-premier-donjon",
  "publish": true,
  "title": "Des images du premier donjon"
}