{
  "excerpt": "Comment ouvrir une porte avec un mécanisme, une explosion ou n'importe quelle interaction ou condition avec le héros.",
  "id": "book-chapter-solarus-video-tutorial-basics-doors",
  "index": 32,
  "origin_tree": "development/tutorials/solarus-video-tutorial",
  "page_override": {
    "meta_description": "Comment ouvrir une porte avec un mécanisme, une explosion ou n'importe quelle interaction ou condition avec le héros.",
    "meta_image": "../../../../book/tutorial/solarus-video-tutorial/images/thumbnail.png",
    "meta_title": "Les portes",
    "parent": "development/tutorials/solarus-video-tutorial",
    "slug": "development/tutorials/solarus-video-tutorial/doors",
    "title": "Les portes"
  },
  "page_slug": "development/tutorials/solarus-video-tutorial/doors",
  "publish": true,
  "title": "Les portes"
}
