{
  "excerpt": "Comment scroller correctement entre les maps lorsqu'elles sont de tailles différentes.",
  "id": "book-chapter-solarus-video-tutorial-basics-scroll-between-maps",
  "index": 11,
  "origin_tree": "development/tutorials/solarus-video-tutorial",
  "page_override": {
    "meta_description": "Comment scroller correctement entre les maps lorsqu'elles sont de tailles différentes.",
    "meta_image": "../../../../book/tutorial/solarus-video-tutorial/images/thumbnail.png",
    "meta_title": "Comment scroller entre des maps de tailles différentes",
    "parent": "development/tutorials/solarus-video-tutorial",
    "slug": "development/tutorials/solarus-video-tutorial/scroll-between-maps",
    "title": "Comment scroller entre des maps de tailles différentes"
  },
  "page_slug": "development/tutorials/solarus-video-tutorial/scroll-between-maps",
  "publish": true,
  "title": "Comment scroller entre des maps de tailles différentes"
}
