{
  "authors": [
    "Olivier Cléro"
  ],
  "categories": [
    "Solarus"
  ],
  "creation_date": "2013-05-16",
  "excerpt": "As you may have seen, Solarus 1.0.1 has just been released. The project is becoming quite big, as it incorporates an engine, 2 games (3 games soon)....",
  "id": "2013-05-16-a-new-design-to-celebrate-solarus-1-0-x",
  "image_thumbnail": "../../../../../assets/blog/default_article_thumbnail.jpg",
  "page_override": {
    "meta_description": "",
    "meta_image": "../../../../../assets/images/meta_image_fallback.jpg",
    "meta_title": "A new design to celebrate Solarus 1.0.x",
    "parent": "news",
    "slug": "news/2013-05-16-a-new-design-to-celebrate-solarus-1-0-x",
    "title": "A new design to celebrate Solarus 1.0.x"
  },
  "page_slug": "news/2013-05-16-a-new-design-to-celebrate-solarus-1-0-x",
  "publish": true,
  "title": "A new design to celebrate Solarus 1.0.x"
}