{
  "authors": [
    "Christopho"
  ],
  "categories": [
    "Solarus"
  ],
  "creation_date": "2010-09-09",
  "excerpt": "Up to now, the equipment is hardcoded in the C++ engine. If you are developping your own quest with the Solarus engine, you cannot add new items or....",
  "id": "2010-09-09-making-the-equipment-independent-of-the-engine",
  "image_thumbnail": "../../../../../assets/blog/default_article_thumbnail.jpg",
  "page_override": {
    "meta_description": "",
    "meta_image": "../../../../../assets/images/meta_image_fallback.jpg",
    "meta_title": "Making the equipment independent of the engine",
    "parent": "news",
    "slug": "news/2010-09-09-making-the-equipment-independent-of-the-engine",
    "title": "Making the equipment independent of the engine"
  },
  "page_slug": "news/2010-09-09-making-the-equipment-independent-of-the-engine",
  "publish": true,
  "title": "Making the equipment independent of the engine"
}