{
  "authors": [
    "Christopho"
  ],
  "categories": [
    "Solarus"
  ],
  "creation_date": "2015-05-02",
  "excerpt": "A new version of Solarus and Solarus Quest Editor is available: version 1.4!\r\n\r\nWe have been working hard for the last few months to completely....",
  "id": "2015-05-02-solarus-1-4-released-new-quest-editor",
  "image_thumbnail": "../../../../../assets/blog/default_article_thumbnail.jpg",
  "page_override": {
    "meta_description": "",
    "meta_image": "../../../../../assets/images/meta_image_fallback.jpg",
    "meta_title": "Solarus 1.4 released, new quest editor!",
    "parent": "news",
    "slug": "news/2015-05-02-solarus-1-4-released-new-quest-editor",
    "title": "Solarus 1.4 released, new quest editor!"
  },
  "page_slug": "news/2015-05-02-solarus-1-4-released-new-quest-editor",
  "publish": true,
  "title": "Solarus 1.4 released, new quest editor!"
}