{
  "authors": [
    "Christopho"
  ],
  "categories": [
    "Solarus"
  ],
  "creation_date": "2005-09-25",
  "excerpt": "Une petite news pour vous signaler que Niko et moi avons repris le travail en ce qui concerne la partie scénaristique du projet Zelda : Mercuris'....",
  "id": "2005-09-25-des-nouvelles-de-zelda-m-c",
  "image_thumbnail": "../../../../../assets/blog/default_article_thumbnail.jpg",
  "page_override": {
    "meta_description": "",
    "meta_image": "../../../../../assets/images/meta_image_fallback.jpg",
    "meta_title": "Des nouvelles de Zelda M'C",
    "parent": "news",
    "slug": "news/2005-09-25-des-nouvelles-de-zelda-m-c",
    "title": "Des nouvelles de Zelda M'C"
  },
  "page_slug": "news/2005-09-25-des-nouvelles-de-zelda-m-c",
  "publish": true,
  "title": "Des nouvelles de Zelda M'C"
}