{
  "excerpt": "Comment télécharger Solarus et créer une nouvelle quête.",
  "id": "book-chapter-solarus-video-tutorial-basics-create-a-quest",
  "index": 1,
  "origin_tree": "development/tutorials/solarus-video-tutorial",
  "page_override": {
    "meta_description": "Comment télécharger Solarus et créer une nouvelle quête.",
    "meta_image": "../../../../book/tutorial/solarus-video-tutorial/images/thumbnail.png",
    "meta_title": "Créer une quête",
    "parent": "development/tutorials/solarus-video-tutorial",
    "slug": "development/tutorials/solarus-video-tutorial/create-a-quest",
    "title": "Créer une quête"
  },
  "page_slug": "development/tutorials/solarus-video-tutorial/create-a-quest",
  "publish": true,
  "title": "Créer une quête"
}
