{
  "authors": {
    "default_value": "-",
    "is_filter": true,
    "label": "Authors",
    "required": true,
    "type": "category"
  },
  "categories": {
    "default_value": "-",
    "is_filter": true,
    "label": "Categories",
    "required": true,
    "type": "category"
  },
  "content": {
    "is_filter": false,
    "label": "Content",
    "required": true,
    "type": "content"
  },
  "creation_date": {
    "api_exposed_entities": true,
    "default_value": false,
    "is_filter": false,
    "label": "Creation date",
    "required": false,
    "type": "date"
  },
  "excerpt": {
    "is_filter": false,
    "label": "Excerpt",
    "required": true,
    "type": "string"
  },
  "id": {
    "is_filter": false,
    "label": "Id",
    "required": true,
    "type": "string"
  },
  "image_thumbnail": {
    "is_filter": false,
    "label": "Image thumbnail",
    "required": true,
    "type": "image"
  },
  "page_override": {
    "is_filter": false,
    "label": "Page override",
    "required": true,
    "type": "object"
  },
  "page_slug": {
    "is_filter": false,
    "label": "Page slug",
    "required": true,
    "type": "url"
  },
  "publish": {
    "is_filter": false,
    "label": "Publish?",
    "required": true,
    "type": "boolean"
  },
  "title": {
    "api_exposed_entities": true,
    "is_filter": false,
    "label": "Title",
    "required": true,
    "type": "string"
  }
}
