{
  "authors": [
    "Olivier Cléro"
  ],
  "categories": [
    "Games"
  ],
  "creation_date": "2021-01-21",
  "excerpt": "Max Mraz made the first Solarus game to be released on Steam!",
  "id": "article-2021-01-21-oceans-heart-game-release",
  "image_thumbnail": "images/cover.jpg",
  "page_override": {
    "meta_description": "Max Mraz made the first Solarus game to be released on Steam!",
    "meta_image": "images/cover.jpg",
    "meta_title": "Ocean's Heart game release",
    "parent": "news",
    "slug": "news/2021-01-21-oceans-heart-game-release",
    "title": "Ocean's Heart game release"
  },
  "page_slug": "news/2021-01-21-oceans-heart-game-release",
  "publish": true,
  "title": "Ocean's Heart game release"
}
