{
  "authors": [
    "Christopho"
  ],
  "categories": [
    "Solarus"
  ],
  "creation_date": "2008-07-24",
  "excerpt": "Bonjour ! Voilà une petite news pour vous signaler que même si je suis en vacances, ça avance ^^ Ces derniers temps, j'ai passé beaucoup de....",
  "id": "2008-07-24-zelda-solarus-dx-des-vases-et-des-rubis",
  "image_thumbnail": "../../../../../assets/blog/default_article_thumbnail.jpg",
  "page_override": {
    "meta_description": "",
    "meta_image": "../../../../../assets/images/meta_image_fallback.jpg",
    "meta_title": "Zelda Solarus DX : des vases et des rubis",
    "parent": "news",
    "slug": "news/2008-07-24-zelda-solarus-dx-des-vases-et-des-rubis",
    "title": "Zelda Solarus DX : des vases et des rubis"
  },
  "page_slug": "news/2008-07-24-zelda-solarus-dx-des-vases-et-des-rubis",
  "publish": true,
  "title": "Zelda Solarus DX : des vases et des rubis"
}