{
  "authors": [
    "Christopho"
  ],
  "categories": [
    "Solarus"
  ],
  "creation_date": "2007-04-01",
  "excerpt": "tjs ds l'idée de rendre Zelda Solarus plus vivant, on a refait le design du....",
  "id": "2007-04-01-forum-relooke",
  "image_thumbnail": "../../../../../assets/blog/default_article_thumbnail.jpg",
  "page_override": {
    "meta_description": "",
    "meta_image": "../../../../../assets/images/meta_image_fallback.jpg",
    "meta_title": "Forum relooké !",
    "parent": "news",
    "slug": "news/2007-04-01-forum-relooke",
    "title": "Forum relooké !"
  },
  "page_slug": "news/2007-04-01-forum-relooke",
  "publish": true,
  "title": "Forum relooké !"
}