{
  "authors": [
    "Olivier Cléro"
  ],
  "categories": [
    "Solarus"
  ],
  "creation_date": "2018-12-28",
  "excerpt": "Solarus is finally available on Snap Store and Ubuntu Software Center.",
  "id": "2018-12-28-solarus-on-snap-store-and-ubuntu-software-center",
  "image_thumbnail": "2018-12-28-solarus-on-snap-store-and-ubuntu-software-center/cover.jpg",
  "page_override": {
    "meta_description": "",
    "meta_image": "../../../../../assets/images/meta_image_fallback.jpg",
    "meta_title": "Solarus on Snap Store",
    "parent": "news",
    "slug": "news/2018-12-28-solarus-on-snap-store-and-ubuntu-software-center",
    "title": "Solarus on Snap Store"
  },
  "page_slug": "news/2018-12-28-solarus-on-snap-store-and-ubuntu-software-center",
  "publish": true,
  "title": "Solarus on Snap Store"
}