<?xml version="1.0" encoding="utf-8"?>
<!-- Generator: Adobe Illustrator 22.1.0, SVG Export Plug-In . SVG Version: 6.00 Build 0)  -->
<svg version="1.1" id="illustration" xmlns="http://www.w3.org/2000/svg" xmlns:xlink="http://www.w3.org/1999/xlink" x="0px"
	 y="0px" viewBox="0 0 180 120" style="enable-background:new 0 0 180 120;" xml:space="preserve">
<style type="text/css">
	.st0{fill:#7672A3;}
	.st1{fill:#ED8312;}
	.st2{fill:#FFBC00;}
	.st3{fill:#FFFFFF;}
	.st4{opacity:0.5;fill:#7672A3;}
</style>
<title>illustration</title>
<path id="window" class="st0" d="M121,36H59c-1.1,0-2,0.9-2,2v38c0,1.1,0.9,2,2,2h62c1.1,0,2-0.9,2-2V38C123,36.9,122.1,36,121,36z
	 M59,77c-0.6,0-1-0.4-1-1V41h15v36H59z M122,76c0,0.6-0.4,1-1,1H74V41h15v4h33V76z M122,44H90v-3h32V44z M122,40H58v-2
	c0-0.6,0.4-1,1-1h62c0.6,0,1,0.4,1,1V40z M116.3,38.5c0,0.4-0.3,0.8-0.8,0.8s-0.8-0.3-0.8-0.8s0.3-0.8,0.8-0.8
	C115.9,37.8,116.2,38.1,116.3,38.5z M118.3,38.5c0,0.4-0.3,0.8-0.8,0.8s-0.8-0.3-0.8-0.8s0.3-0.8,0.8-0.8
	C117.9,37.8,118.2,38.1,118.3,38.5z M120.3,38.5c0,0.4-0.3,0.8-0.8,0.8s-0.8-0.3-0.8-0.8s0.3-0.8,0.8-0.8
	C119.9,37.8,120.2,38.1,120.3,38.5z M83,38h14v1H83V38z M75,42h13v1H75V42z M63,48v1h8v1h-8v2h8v1h-8c-0.6,0-1-0.4-1-1v-8h-2v-1h9v1
	h-6v2h8v1h-8V48z M63,60h8v1h-8c-0.6,0-1-0.4-1-1v-2h-2v-1h9v1h-6V60z M63,68h8v1h-8v2h8v1h-8c-0.6,0-1-0.4-1-1v-5h-2v-1h9v1h-6V68z
	"/>
<g id="editor">
	<path class="st1" d="M98,49.8H87v12.6c0,9,11,11.6,11,11.6s11-2.6,11-11.6V49.8H98z"/>
	<path class="st2" d="M98,48H87v12.6c0,9,11,11.6,11,11.6s11-2.6,11-11.6V48H98z"/>
	<path class="st1" d="M102,56c-0.9,0.2-3.7,2.7-5.4,4.4c-3.1,3.1-3.3,4.9-3,5.1s2,0.1,5.1-3c1.7-1.7,4.2-4.5,4.4-5.4L102,56z"/>
	<rect x="102.7" y="55.3" transform="matrix(0.7071 -0.7071 0.7071 0.7071 -9.4973 89.239)" class="st1" width="0.5" height="1.5"/>
	<path class="st1" d="M103.9,56.2c0,0,1.1,0.4,1.9-1.1s1.3-1.5,1.5-1.4c-0.3-0.3-2.4-1-3.4-0.3c-0.6,0.4-1,1-1.1,1.7L103.9,56.2z"/>
	<path class="st1" d="M98.4,52.9L97.5,52l0.1,0.1c-0.5-0.5-1.3-0.5-1.9,0l-0.3,0.3l0,0c-0.5,0.5-1.2,0.5-1.6,0l-0.3-0.3l-3.2,3.2
		l0.3,0.3c0.4,0.5,0.4,1.2,0,1.7l0,0l-0.8-0.8l-1.3,1.3l2.6,2.6l1.3-1.2l-0.8-0.8l0,0c0.5-0.4,1.2-0.4,1.7,0l0.3,0.3l0.6-0.6l0,0
		l2-2l0,0l0.6-0.6L96.3,55c-0.4-0.3-0.6-0.9-0.2-1.4c0.3-0.3,0.8-0.3,1.1,0c0,0,0,0,0,0l0.3,0.3L98.4,52.9z"/>
	<path class="st1" d="M103.4,63.5l-2.7-2.7c-1.7-1.8-2.1-1.4-4.3-3.6l0,0l-1.1,1.1c2.2,2.2,1.9,2.5,3.6,4.3l2.7,2.7l0,0l0,0
		c0.5,0.5,1.3,0.4,1.8-0.1C103.8,64.7,103.8,63.9,103.4,63.5L103.4,63.5L103.4,63.5z"/>
	<rect x="94" y="57" transform="matrix(0.7071 -0.7071 0.7071 0.7071 -12.54 84.2524)" class="st1" width="2.8" height="0.5"/>
	<path class="st1" d="M106,53.2l0.5,0.4h0.6h0.2l0.1,0.1V53c-0.1-0.1-0.2-0.1-0.7,0L106,53.2z"/>
	<polygon class="st1" points="103.2,54.3 102.8,54.4 102.8,55.2 103.4,55.7 103.7,55.5 103.6,54.7 	"/>
	<polygon class="st1" points="101.7,56.9 103.1,57.1 103.1,56.4 101.8,56.4 	"/>
	<polygon class="st1" points="102.7,56.5 103.7,56.5 103.7,55.8 102.5,55.1 102.3,55 102.3,56 	"/>
	<polygon class="st1" points="93.7,56.5 94.3,57.4 94.3,58.1 95.3,57.5 95.3,58.2 96.5,58 96.6,56.5 96.6,55.8 96.2,55.5 96.4,55.3 
		96.6,55.3 96.6,54.6 94,56.1 	"/>
	<polygon class="st1" points="90.3,54.6 90.3,55.3 91.4,55.4 90.8,54.4 	"/>
	<polygon class="st1" points="93.4,65.2 93.4,64.5 94.1,64.4 93.6,65.4 	"/>
	<polygon class="st1" points="88.5,57 88.5,57.7 92.3,59 92.3,58.3 	"/>
	<path class="st1" d="M97,57.7l0.2,3.1l0.8-1.9v-1L97,57.7z"/>
	<polygon class="st1" points="96,52.2 96.7,52.2 96.7,52.9 95.7,52.7 	"/>
	<path class="st3" d="M102,55.3c-0.9,0.2-3.7,2.7-5.4,4.4c-3.1,3.1-3.3,4.9-3,5.1s2,0.1,5.1-3c1.7-1.7,4.2-4.5,4.4-5.4L102,55.3z"/>
	
		<rect x="102.7" y="54.6" transform="matrix(0.7071 -0.7071 0.7071 0.7071 -9.0032 89.0361)" class="st3" width="0.5" height="1.5"/>
	<path class="st3" d="M103.9,55.5c0,0,1.1,0.4,1.9-1.1s1.3-1.5,1.5-1.4c-0.3-0.3-2.4-1-3.4-0.3c-0.6,0.4-1,1-1.1,1.7L103.9,55.5z"/>
	<path class="st3" d="M98.4,52.2l-0.9-0.9l0.1,0.1c-0.5-0.5-1.3-0.5-1.9,0l-0.3,0.3l0,0c-0.5,0.5-1.2,0.5-1.6,0l-0.3-0.3l-3.2,3.1
		l0.3,0.3c0.5,0.5,0.5,1.2,0,1.6l0,0l-0.8-0.8L88.5,57l2.6,2.6l1.3-1.3l-0.8-0.8l0,0c0.5-0.4,1.2-0.4,1.7,0l0.3,0.3l0.6-0.6l0,0l2-2
		l0,0l0.6-0.6l-0.3-0.3c-0.4-0.3-0.5-0.9-0.2-1.4c0.3-0.3,0.8-0.3,1.1,0c0,0,0,0,0,0l0.3,0.3L98.4,52.2z"/>
	<rect x="94" y="56.3" transform="matrix(0.7071 -0.7071 0.7071 0.7071 -12.0429 84.0424)" class="st3" width="2.8" height="0.5"/>
	<path class="st3" d="M98,57.8c-0.5-0.4-1.1-0.9-1.6-1.4l-1.1,1.1c0.5,0.5,0.9,1,1.4,1.5C97,58.7,97.5,58.3,98,57.8z"/>
	<path class="st3" d="M98.3,58.1c-0.5,0.4-0.9,0.9-1.4,1.3c0.6,0.8,1.2,1.6,1.9,2.3c0.5-0.5,1.1-1.2,1.7-1.8
		C99.8,59.2,99.1,58.6,98.3,58.1z"/>
	<path class="st3" d="M103.4,62.8L103.4,62.8L103.4,62.8l-2.6-2.6c-0.6,0.7-1.2,1.3-1.7,1.8l2.6,2.6l0,0l0,0
		c0.5,0.5,1.3,0.4,1.8-0.1C103.9,64,103.9,63.2,103.4,62.8L103.4,62.8z"/>
</g>
<path id="path_bottom" class="st4" d="M79,82v-1.5c0-0.3,0.2-0.5,0.5-0.5s0.5,0.2,0.5,0.5V82c0,0.3-0.2,0.5-0.5,0.5S79,82.3,79,82z
	 M80.4,92c-0.2,0-0.4-0.3-0.4-0.5v-1.3c0-0.3-0.2-0.5-0.5-0.5S79,89.9,79,90.2v1.3c0,0.7,0.5,1.4,1.3,1.5h0.1c0.3,0,0.5-0.2,0.5-0.5
	C80.9,92.3,80.7,92,80.4,92z M91.3,92h-2.7c-0.3,0-0.5,0.2-0.5,0.5s0.2,0.5,0.5,0.5h2.7c0.3,0,0.5-0.2,0.5-0.5S91.5,92,91.3,92z
	 M85.8,92h-2.7c-0.3,0-0.5,0.2-0.5,0.5s0.2,0.5,0.5,0.5h2.7c0.3,0,0.5-0.2,0.5-0.5S86.1,92,85.8,92z M79.5,88c0.3,0,0.5-0.2,0.5-0.5
	v-2.8c0-0.3-0.2-0.5-0.5-0.5S79,84.5,79,84.7v2.7C79,87.7,79.2,88,79.5,88C79.5,88,79.5,88,79.5,88z M95.5,95.9
	c-0.3,0-0.5,0.2-0.5,0.5v2.3c0,0.3,0.2,0.5,0.5,0.5S96,99,96,98.7v-2.4C96,96.1,95.8,95.8,95.5,95.9L95.5,95.9z M95.5,100.5
	c-0.3,0-0.5,0.2-0.5,0.5v1.5c0,0.3,0.2,0.5,0.5,0.5s0.5-0.2,0.5-0.5V101C96,100.7,95.8,100.5,95.5,100.5L95.5,100.5z M97,92h-3
	c-0.3,0-0.5,0.2-0.5,0.5S93.7,93,94,93h1v1c0,0.3,0.2,0.5,0.5,0.5S96,94.3,96,94v-1h1c0.3,0,0.5-0.2,0.5-0.5S97.3,92,97,92z
	 M117.5,92h-0.8c-0.3,0-0.5,0.2-0.5,0.5s0.2,0.5,0.5,0.5h0.8c0.3,0,0.5,0.2,0.5,0.5v0.4c0,0.3,0.2,0.5,0.5,0.5s0.5-0.2,0.5-0.5v-0.4
	C119,92.7,118.3,92,117.5,92z M102.6,92h-2.8c-0.3,0-0.5,0.2-0.5,0.5s0.2,0.5,0.5,0.5h2.8c0.3,0,0.5-0.2,0.5-0.5S102.9,92,102.6,92z
	 M118.5,96.2c-0.3,0-0.5,0.2-0.5,0.5v2.8c0,0.3,0.2,0.5,0.5,0.5s0.5-0.2,0.5-0.5v-2.8C119,96.5,118.8,96.2,118.5,96.2z M118.5,101.9
	c-0.3,0-0.5,0.2-0.5,0.5v2.8c0,0.3,0.2,0.5,0.5,0.5s0.5-0.2,0.5-0.5v-2.8C119,102.1,118.8,101.9,118.5,101.9z M108.3,92h-2.8
	c-0.3,0-0.5,0.2-0.5,0.5s0.2,0.5,0.5,0.5h2.8c0.3,0,0.5-0.2,0.5-0.5S108.5,92,108.3,92z M113.9,92h-2.8c-0.3,0-0.5,0.2-0.5,0.5
	s0.2,0.5,0.5,0.5h2.8c0.3,0,0.5-0.2,0.5-0.5S114.2,92,113.9,92z M118.5,107.5c-0.3,0-0.5,0.2-0.5,0.5v1.5c0,0.3,0.2,0.5,0.5,0.5
	s0.5-0.2,0.5-0.5V108C119,107.7,118.8,107.5,118.5,107.5z"/>
<path id="path_left" class="st4" d="M29,54.5c0-0.3,0.2-0.5,0.5-0.5H31c0.3,0,0.5,0.2,0.5,0.5S31.3,55,31,55h-1.5
	C29.2,55,29,54.8,29,54.5z M40.5,55c0.3,0,0.5,0.2,0.5,0.5v1.3c0,0.3,0.2,0.5,0.5,0.5s0.5-0.2,0.5-0.5v-1.3c0-0.8-0.7-1.5-1.5-1.5
	l0,0h-0.2c-0.3,0-0.5,0.2-0.5,0.5S40,55,40.3,55H40.5z M49.9,67h-3.1c-0.3,0-0.5,0.2-0.5,0.5s0.2,0.5,0.5,0.5h3.1
	c0.3,0,0.5-0.2,0.5-0.5S50.2,67,49.9,67z M43.7,67h-1.2c-0.3,0-0.5-0.2-0.5-0.5v-0.3c0-0.3-0.2-0.5-0.5-0.5S41,65.9,41,66.2v0.3
	c0,0.4,0.2,0.8,0.5,1.1c-0.3,0-0.5,0.2-0.5,0.5v3c0,0.3,0.2,0.5,0.5,0.5s0.5-0.2,0.5-0.5v-3c0-0.1,0-0.1,0-0.2
	c0.2,0.1,0.4,0.1,0.5,0.1h1.2c0.3,0,0.5-0.2,0.5-0.5S44,67,43.7,67L43.7,67z M37.2,55c0.3,0,0.5-0.2,0.5-0.5S37.5,54,37.2,54h-3.1
	c-0.3,0-0.5,0.2-0.5,0.5s0.2,0.5,0.5,0.5H37.2z M41.5,59.4c-0.3,0-0.5,0.2-0.5,0.5V63c0,0.3,0.2,0.5,0.5,0.5S42,63.3,42,63v-3.1
	C42,59.6,41.8,59.4,41.5,59.4z M54.5,67H53c-0.3,0-0.5,0.2-0.5,0.5S52.7,68,53,68h1.5c0.3,0,0.5-0.2,0.5-0.5S54.8,67,54.5,67z
	 M19.5,76h-3c-0.3,0-0.5,0.2-0.5,0.5s0.2,0.5,0.5,0.5h3c0.3,0,0.5-0.2,0.5-0.5S19.8,76,19.5,76z M31.5,76h-3c-0.3,0-0.5,0.2-0.5,0.5
	s0.2,0.5,0.5,0.5h3c0.3,0,0.5-0.2,0.5-0.5S31.8,76,31.5,76z M25.5,76h-3c-0.3,0-0.5,0.2-0.5,0.5s0.2,0.5,0.5,0.5h3
	c0.3,0,0.5-0.2,0.5-0.5S25.8,76,25.5,76z M13.5,76h-3c-0.3,0-0.5,0.2-0.5,0.5s0.2,0.5,0.5,0.5h3c0.3,0,0.5-0.2,0.5-0.5
	S13.8,76,13.5,76z M37.5,76h-3c-0.3,0-0.5,0.2-0.5,0.5s0.2,0.5,0.5,0.5h3c0.3,0,0.5-0.2,0.5-0.5S37.8,76,37.5,76z M41.5,73.6
	c-0.3,0-0.5,0.2-0.5,0.5v1.4c0,0.3-0.2,0.5-0.5,0.5S40,76.2,40,76.5s0.2,0.5,0.5,0.5c0.8,0,1.5-0.7,1.5-1.5v-1.4
	C42,73.8,41.8,73.6,41.5,73.6z M41.5,77c-0.3,0-0.5,0.2-0.5,0.5v3c0,0.3,0.2,0.5,0.5,0.5s0.5-0.2,0.5-0.5v-3
	C42,77.2,41.8,77,41.5,77z M41.5,83c-0.3,0-0.5,0.2-0.5,0.5v3c0,0.3,0.2,0.5,0.5,0.5s0.5-0.2,0.5-0.5v-3C42,83.2,41.8,83,41.5,83z"
	/>
<path id="path_top" class="st4" d="M82,28.5v0.9c0,0.3-0.2,0.5-0.5,0.5S81,29.6,81,29.4v-0.9c0-0.3-0.2-0.5-0.5-0.5h-0.6
	c-0.3,0-0.5-0.2-0.5-0.5s0.2-0.5,0.5-0.5h0.6C81.3,27,82,27.7,82,28.5z M76.9,27h-3c-0.3,0-0.5,0.2-0.5,0.5s0.2,0.5,0.5,0.5h3
	c0.3,0,0.5-0.2,0.5-0.5S77.2,27,76.9,27z M81.5,31.9c-0.3,0-0.5,0.2-0.5,0.5v1.1c0,0.3,0.2,0.5,0.5,0.5s0.5-0.2,0.5-0.5v-1.1
	C82,32.1,81.8,31.9,81.5,31.9z M70.9,27h-3c-0.3,0-0.5,0.2-0.5,0.5s0.2,0.5,0.5,0.5h3c0.3,0,0.5-0.2,0.5-0.5S71.2,27,70.9,27z
	 M57.5,23c0.3,0,0.5-0.2,0.5-0.5v-3c0-0.3-0.2-0.5-0.5-0.5S57,19.2,57,19.5v3C57,22.8,57.2,23,57.5,23z M58.9,27h-0.4
	c-0.3,0-0.5-0.2-0.5-0.5v-1c0-0.3-0.2-0.5-0.5-0.5S57,25.2,57,25.5v1c0,0.8,0.7,1.5,1.5,1.5h0.4c0.3,0,0.5-0.2,0.5-0.5
	S59.2,27,58.9,27z M64.9,27h-3c-0.3,0-0.5,0.2-0.5,0.5s0.2,0.5,0.5,0.5h3c0.3,0,0.5-0.2,0.5-0.5S65.2,27,64.9,27z M97.5,12
	c-0.8,0-1.5,0.7-1.5,1.5v1.4c0,0.3,0.2,0.5,0.5,0.5s0.5-0.2,0.5-0.5v-1.4c0-0.3,0.2-0.5,0.5-0.5s0.5-0.2,0.5-0.5S97.8,12,97.5,12z
	 M96.5,17.4c-0.3,0-0.5,0.2-0.5,0.5v3c0,0.3,0.2,0.5,0.5,0.5s0.5-0.2,0.5-0.5v-3C97,17.7,96.8,17.4,96.5,17.4z M103.5,12h-3
	c-0.3,0-0.5,0.2-0.5,0.5s0.2,0.5,0.5,0.5h3c0.3,0,0.5-0.2,0.5-0.5S103.8,12,103.5,12z M109.5,12h-3c-0.3,0-0.5,0.2-0.5,0.5
	s0.2,0.5,0.5,0.5h3c0.3,0,0.5-0.2,0.5-0.5S109.8,12,109.5,12z M93.6,27h-3c-0.3,0-0.5,0.2-0.5,0.5s0.2,0.5,0.5,0.5h3
	c0.3,0,0.5-0.2,0.5-0.5S93.9,27,93.6,27z M96.5,23.4c-0.3,0-0.5,0.2-0.5,0.5v2.6c0,0.1,0,0.1,0,0.2c-0.1,0.2,0,0.5,0.2,0.7
	c0,0,0,0,0,0c0.1,0,0.1,0,0.2,0c0.2,0,0.4-0.1,0.5-0.3c0.1-0.2,0.1-0.4,0.1-0.6v-2.6C97,23.7,96.8,23.4,96.5,23.4z M87.6,27h-3
	c-0.3,0-0.5,0.2-0.5,0.5s0.2,0.5,0.5,0.5h3c0.3,0,0.5-0.2,0.5-0.5S87.9,27,87.6,27z"/>
<path id="path_right" class="st4" d="M127.5,59.5c0,0.3-0.2,0.5-0.5,0.5h-1.5c-0.3,0-0.5-0.2-0.5-0.5s0.2-0.5,0.5-0.5h1.5
	C127.3,59,127.5,59.2,127.5,59.5z M131.5,47c-0.3,0-0.5,0.2-0.5,0.5v2.7c0,0.3,0.2,0.5,0.5,0.5s0.5-0.2,0.5-0.5v-2.7
	C132,47.2,131.8,47,131.5,47L131.5,47z M132.2,42c-0.7,0.1-1.2,0.8-1.2,1.5v1.3c0,0.3,0.2,0.5,0.5,0.5s0.5-0.2,0.5-0.5v-1.3
	c0-0.2,0.2-0.4,0.4-0.5c0.3-0.1,0.4-0.3,0.4-0.6C132.8,42.1,132.5,42,132.2,42C132.2,42,132.2,42,132.2,42L132.2,42z M131.5,57.7
	c-0.3,0-0.5,0.2-0.5,0.5v0.3c0,0.3-0.2,0.5-0.5,0.5h-0.8c-0.3,0-0.5,0.2-0.5,0.5s0.2,0.5,0.5,0.5h0.8c0.8,0,1.5-0.7,1.5-1.5v-0.3
	C132,57.9,131.8,57.7,131.5,57.7L131.5,57.7z M131.5,52.3c-0.3,0-0.5,0.2-0.5,0.5v2.7c0,0.3,0.2,0.5,0.5,0.5s0.5-0.2,0.5-0.5v-2.6
	C132,52.6,131.8,52.3,131.5,52.3L131.5,52.3z M136.5,42H135c-0.3,0-0.5,0.2-0.5,0.5s0.2,0.5,0.5,0.5h1.5c0.3,0,0.5-0.2,0.5-0.5
	S136.8,42,136.5,42z M149,42h-1.5c-0.3,0-0.5,0.2-0.5,0.5s0.2,0.5,0.5,0.5h1.5c0.3,0,0.5-0.2,0.5-0.5S149.3,42,149,42z M153,54.1
	c0-0.3-0.2-0.5-0.5-0.5s-0.5,0.2-0.5,0.5V57c0,0.3,0.2,0.5,0.5,0.5s0.5-0.2,0.5-0.5V54.1z M160.1,67h-2.9c-0.3,0-0.5,0.2-0.5,0.5
	s0.2,0.5,0.5,0.5h2.9c0.3,0,0.5-0.2,0.5-0.5S160.3,67,160.1,67z M154.2,67h-0.7c-0.3,0-0.5-0.2-0.5-0.5v-0.7c0-0.3-0.2-0.5-0.5-0.5
	s-0.5,0.2-0.5,0.5v0.7c0,0.8,0.7,1.5,1.5,1.5h0.7c0.3,0,0.5-0.2,0.5-0.5S154.5,67,154.2,67z M152.5,59.5c-0.3,0-0.5,0.2-0.5,0.5v2.9
	c0,0.3,0.2,0.5,0.5,0.5s0.5-0.2,0.5-0.5V60C153,59.7,152.8,59.5,152.5,59.5C152.5,59.5,152.5,59.5,152.5,59.5z M152,45.3
	c0,0.3,0.2,0.5,0.5,0.5s0.5-0.2,0.5-0.5v-1.8c0-0.6-0.3-1.1-0.9-1.4c-0.2-0.1-0.5,0-0.7,0.2c0,0,0,0,0,0c-0.1,0.2,0,0.5,0.2,0.7
	c0,0,0,0,0,0c0.2,0.1,0.3,0.3,0.3,0.5V45.3z M153,48.2c0-0.3-0.2-0.5-0.5-0.5S152,48,152,48.2v2.9c0,0.3,0.2,0.5,0.5,0.5
	s0.5-0.2,0.5-0.5V48.2z M164.5,67H163c-0.3,0-0.5,0.2-0.5,0.5s0.2,0.5,0.5,0.5h1.5c0.3,0,0.5-0.2,0.5-0.5S164.8,67,164.5,67z"/>
<path id="gamepad" class="st0" d="M100.5,104h-10c-2.5,0-4.5,2-4.5,4.5c0,2.5,2,4.5,4.5,4.5c1.5,0,2.9-0.7,3.7-2h2.5
	c1.4,2.1,4.2,2.6,6.2,1.2c2.1-1.4,2.6-4.2,1.2-6.2C103.4,104.7,102,104,100.5,104z M100.5,112c-1.2,0-2.3-0.6-2.9-1.6l-0.3-0.4h-3.6
	l-0.3,0.4c-1.1,1.6-3.2,2-4.9,1c-1.6-1.1-2-3.2-1-4.9c0.6-1,1.7-1.6,2.9-1.6h10c1.9,0,3.5,1.6,3.5,3.5S102.4,112,100.5,112z M91,108
	h1v1h-1v1h-1v-1h-1v-1h1v-1h1V108z M100,108.5c0,0.3-0.2,0.5-0.5,0.5s-0.5-0.2-0.5-0.5s0.2-0.5,0.5-0.5S100,108.2,100,108.5z
	 M100,107.5c0-0.3,0.2-0.5,0.5-0.5s0.5,0.2,0.5,0.5s-0.2,0.5-0.5,0.5S100,107.8,100,107.5z M101,109.5c0,0.3-0.2,0.5-0.5,0.5
	s-0.5-0.2-0.5-0.5s0.2-0.5,0.5-0.5S101,109.2,101,109.5z M102,108.5c0,0.3-0.2,0.5-0.5,0.5s-0.5-0.2-0.5-0.5s0.2-0.5,0.5-0.5
	S102,108.2,102,108.5z M95.5,107.5c0.1,0.1,0.1,0.3,0,0.4c0,0,0,0,0,0l-1.1,1c-0.1,0.1-0.3,0.1-0.4,0c0,0,0,0,0,0l0,0
	c-0.1-0.1-0.1-0.3,0-0.4c0,0,0,0,0,0l1-1.1C95.2,107.3,95.4,107.3,95.5,107.5C95.5,107.4,95.5,107.4,95.5,107.5L95.5,107.5z
	 M97.5,107.5c0.1,0.1,0.1,0.3,0,0.4l-1,1c-0.1,0.1-0.3,0.1-0.4,0c-0.1-0.1-0.1-0.3,0-0.4l1-1C97.2,107.4,97.4,107.4,97.5,107.5
	L97.5,107.5z"/>
<path id="keyboard" class="st0" d="M131,111h-17c-0.6,0-1,0.4-1,1v7c0,0.6,0.4,1,1,1h17c0.6,0,1-0.4,1-1v-7
	C132,111.4,131.6,111,131,111z M131,119h-17v-7h17V119z M124,114h-1v-1h1V114z M124,115h1v1h-1V115z M126,114h-1v-1h1V114z M130,113
	v3h-2v-2h-1v-1H130z M127,116h-1v-1h1V116z M119,117h7v1h-7V117z M117,117h1v1h-1V117z M127,117h1v1h-1V117z M129,117h1v1h-1V117z
	 M116,114h-1v-1h1V114z M122,115h1v1h-1V115z M115,117h1v1h-1V117z M118,114h-1v-1h1V114z M117,116h-2v-1h2V116z M120,115h1v1h-1
	V115z M119,116h-1v-1h1V116z M122,114h-1v-1h1V114z M120,114h-1v-1h1V114z"/>
<path id="dungeon" class="st0" d="M23,52h1v1h-1v3h-1v-3h-1v-1h1v-1h1V52z M29,62H16l0.8-3.2c0.1-0.5,0.5-0.8,1-0.8H18l0.5-7H18
	c-0.6,0-1-0.4-1-1l0.5-4H20v2h1v-2h3v2h1v-2h2.5l0.5,4c0,0.6-0.4,1-1,1h-0.5l0.5,7h0.2c0.5,0,0.9,0.3,1,0.8L29,62z M27.7,61l-0.5-2
	h-1.1l-0.6-9H27l-0.4-3H26v2h-3v-2h-1v2h-3v-2h-0.6L18,50h1.6l-0.6,9h-1.1l-0.5,2H27.7z"/>
<path id="key" class="st0" d="M4.9,80l1.4-1.4l-2.1-2.1l3.2-3.2c1.3,1,3.2,0.7,4.2-0.7s0.7-3.2-0.7-4.2s-3.2-0.7-4.2,0.7
	c-0.7,1-0.7,2.5,0,3.5l-3.2,3.2l-1.4,1.4l-0.7,0.7L0,79.3L0.7,80l2.1,2.1l1.4-1.4l-2.1-2.1l0.7-0.7L4.9,80z M7.7,69.6
	c0.8-0.8,2-0.8,2.8,0c0.8,0.8,0.8,2,0,2.8s-2,0.8-2.8,0c0,0,0,0,0,0C6.9,71.6,6.9,70.3,7.7,69.6z"/>
<path id="map" class="st0" d="M50.7,89.5c-1.8-0.6-3.7-0.9-5.7-1c-1.1,0-2.2,0.2-3.3,0.4L40,89.3v-0.8c0-1.1-1.3-2-3-2s-3,0.9-3,2
	v12c0,1,1.1,1.8,2.5,2l0,0H37c0.2,0,0.4,0,0.6,0c1.2-0.1,2.4-0.3,3.6-0.5c1.2-0.3,2.5-0.4,3.8-0.5c1.8,0.1,3.6,0.4,5.3,1l0.7,0.2
	v-13L50.7,89.5z M37.5,101.5c-0.2,0-0.5,0-0.7,0c-1.1-0.1-1.8-0.6-1.8-1s0.8-1,2-1s2,0.6,2,1S38.4,101.3,37.5,101.5z M39,99
	c-1.2-0.7-2.8-0.7-4,0V88.5c0-0.4,0.8-1,2-1s2,0.6,2,1V99z M50,101.3c-1.6-0.5-3.3-0.8-5-0.8c-1.3,0-2.7,0.2-4,0.5l-1.2,0.2
	c0.1-0.2,0.2-0.4,0.2-0.7V90.2c0.7-0.1,1.3-0.2,1.9-0.3c1-0.2,2.1-0.4,3.2-0.4c1.7,0.1,3.4,0.4,5,0.9V101.3z M45,93.3l1.8-1.8
	l0.7,0.7L45.7,94l1.8,1.8l-0.7,0.7L45,94.7l-1.8,1.8l-0.7-0.7l1.8-1.8l-1.8-1.8l0.7-0.7L45,93.3z"/>
<path id="music" class="st0" d="M62,6v8.9c0,1.1-1.5,2.1-2.7,2.1c-0.7,0-1.3-0.4-1.3-1c0.2-1.2,1.2-2.1,2.4-2.1
	c0.6,0,0.6,0.1,0.6,0.1V8h-6v6.9c0,1.1-1.5,2.1-2.7,2.1c-0.7,0-1.3-0.4-1.3-1c0.2-1.2,1.2-2.1,2.4-2.1c0.6,0,0.6,0.1,0.6,0.1V6H62z"
	/>
<path id="puzzle" class="st0" d="M118,1c1.1,0,2,0.9,2,2c0,0.4-0.2,0.9-0.4,1.2l-0.4,0.9C119,5.4,119,5.7,119,6v1h4v4h1
	c0.3,0,0.6,0,0.9-0.1l0.9-0.4c0.3-0.3,0.8-0.4,1.2-0.4c1.1,0,2,0.9,2,2s-0.9,2-2,2c-0.4,0-0.9-0.2-1.2-0.4l-0.9-0.4
	c-0.3-0.1-0.6-0.1-0.9-0.1h-1v4h-4v1c0,0.3,0,0.6,0.1,0.9l0.4,0.9c0.3,0.3,0.4,0.8,0.4,1.2c0,1.1-0.9,2-2,2s-2-0.9-2-2
	c0-0.4,0.2-0.9,0.4-1.2l0.4-0.9c0.1-0.3,0.1-0.6,0.1-0.9v-1h-4v-2.8l0.2,0.1c1.3,1,3.2,0.8,4.2-0.5s0.8-3.2-0.5-4.2
	c-1.1-0.9-2.6-0.9-3.7,0L113,9.8V7h4V6c0-0.3,0-0.6-0.1-0.9l-0.4-0.9C116.2,3.9,116,3.4,116,3C116,1.9,116.9,1,118,1 M118,0
	c-1.7,0-3,1.3-3,3c0,0.7,0.2,1.3,0.6,1.8l0,0c0.2,0.3,0.4,0.8,0.4,1.2h-3c-0.6,0-1,0.4-1,1v4c0.7,0.1,1.3-0.1,1.8-0.6
	c0.4-0.3,0.8-0.4,1.2-0.4c1.1,0,2,0.9,2,2s-0.9,2-2,2c-0.4,0-0.9-0.2-1.2-0.4c-0.5-0.4-1.1-0.6-1.8-0.6v4c0,0.6,0.4,1,1,1h3
	c0,0.4-0.1,0.8-0.4,1.2l0,0c-0.4,0.5-0.6,1.2-0.6,1.8c0,1.7,1.3,3,3,3s3-1.3,3-3c0-0.7-0.2-1.3-0.6-1.8l0,0
	c-0.2-0.3-0.4-0.8-0.4-1.2h3c0.6,0,1-0.4,1-1v-3c0.4,0,0.8,0.1,1.2,0.4l0,0c0.5,0.4,1.2,0.6,1.8,0.6c1.7,0,3-1.3,3-3s-1.3-3-3-3
	c-0.7,0-1.3,0.2-1.8,0.6l0,0c-0.3,0.2-0.8,0.4-1.2,0.4V7c0-0.6-0.4-1-1-1h-3c0-0.4,0.1-0.8,0.4-1.2l0,0c0.4-0.5,0.6-1.2,0.6-1.8
	C121,1.3,119.7,0,118,0z"/>
<path id="sword" class="st0" d="M145,33h-2v-3.3c0.6-0.4,1-1,1-1.7c0-1.1-0.9-2-2-2s-2,0.9-2,2c0,0.7,0.4,1.4,1,1.7V33h-2
	c-1.1,0-2,0.9-2,2v1h2v-1c0-0.6,0.4-1,1-1v2c0,0.6-0.4,1-1,1v10c0,3,3,5,3,5s3-2,3-5V37c-0.6,0-1-0.4-1-1v-2c0.6,0,1,0.4,1,1v1h2v-1
	C147,33.9,146.1,33,145,33z M142,27c0.6,0,1,0.4,1,1s-0.4,1-1,1s-1-0.4-1-1S141.4,27,142,27z M144,37.7V47c-0.1,1.5-0.8,2.8-2,3.7
	c-1.2-0.9-1.9-2.3-2-3.7v-9.3c0.6-0.4,1-1,1-1.7v-2h2v2C143,36.7,143.4,37.4,144,37.7z"/>
<path id="horse" class="st0" d="M178,70h-1l0.7-0.7v-0.6c0-2.9,4.2-4.5,0.2-9.7c-2-2.8-5.3-3.3-7.4-3.3h-1.8l1.2,2
	c0,0-3,4.8-3.3,5.1c-0.3,0.2-0.4,0.6-0.6,0.9c0,0.3,0,0.5,0.1,0.8c0.1,0.2,0.2,0.4,0.4,0.6c0.1,0.2,0.2,0.3,0.4,0.4s0.7,0.5,1,0.6
	h0.1c0.2,0,0.4-0.1,0.6-0.2c0.2-0.2,0.8-1.4,1.3-1.7s1.8-0.1,2.6-1c0.5-0.5,0.8-1.2,0.9-1.8c0.1,0.9-0.2,1.8-0.7,2.5
	c-0.9,1.2-3.3,2.2-3.3,4.9v0.6L170,70h-1l-1,1h-1v3h13v-3h-2L178,70z M179,73h-11v-1h2v-1h1v-1.3l-0.2-0.3l-0.3-0.4v-0.3
	c0-1.5,0.9-2.2,1.9-3.1c0.4-0.4,0.9-0.8,1.2-1.2c0.7-0.9,1.1-2.1,1-3.3c0-0.6-0.4-1-1-1s-1,0.4-1,1c-0.1,0.5-0.4,1-0.7,1.4
	c-0.4,0.3-0.9,0.5-1.4,0.5c-0.3,0-0.6,0.1-0.9,0.3c-0.6,0.4-1.1,1-1.5,1.6l-0.1,0.1l-0.1-0.1c-0.2-0.1-0.4-0.2-0.6-0.3l-0.1-0.1
	c-0.1-0.1-0.2-0.3-0.2-0.4v-0.1c0,0,0-0.1-0.1-0.1c0.1-0.2,0.2-0.3,0.3-0.4c0.3-0.3,2-3,3.4-5.3l0.3-0.5l-0.3-0.5l-0.3-0.5l0,0
	c2.1,0,4.9,0.5,6.6,2.9s1.8,3.8,0.8,5.6c-0.7,1-1.1,2.3-1.2,3.5v0.2l-0.4,0.4l-0.3,0.3V71h1v1h2L179,73z"/>
</svg>
