{
  "excerpt": "How to create blocks that can be pushed and/or pulled by the hero.",
  "id": "book-chapter-solarus-video-tutorial-basics-blocks",
  "index": 27,
  "origin_tree": "development/tutorials/solarus-video-tutorial",
  "page_override": {
    "meta_description": "How to create blocks that can be pushed and/or pulled by the hero.",
    "meta_image": "../../../../book/tutorial/solarus-video-tutorial/images/thumbnail.png",
    "meta_title": "Blocks",
    "parent": "development/tutorials/solarus-video-tutorial",
    "slug": "development/tutorials/solarus-video-tutorial/blocks",
    "title": "Blocks"
  },
  "page_slug": "development/tutorials/solarus-video-tutorial/blocks",
  "publish": true,
  "title": "Blocks"
}
