{
  "authors": [
    "Christopho"
  ],
  "categories": [
    "Solarus"
  ],
  "creation_date": "2012-04-17",
  "excerpt": "A few days ago, I received an e-mail asking how I proceed to compile Solarus under Windows. That's because the compilation instructions were very....",
  "id": "2012-04-17-windows-compilation-finally-documented",
  "image_thumbnail": "../../../../../assets/blog/default_article_thumbnail.jpg",
  "page_override": {
    "meta_description": "",
    "meta_image": "../../../../../assets/images/meta_image_fallback.jpg",
    "meta_title": "Windows compilation finally documented",
    "parent": "news",
    "slug": "news/2012-04-17-windows-compilation-finally-documented",
    "title": "Windows compilation finally documented"
  },
  "page_slug": "news/2012-04-17-windows-compilation-finally-documented",
  "publish": true,
  "title": "Windows compilation finally documented"
}