{
  "authors": [
    "Diarandor"
  ],
  "categories": [
    "Solarus"
  ],
  "creation_date": "2018-01-21",
  "excerpt": "The Solarus Team is gonna show you the progress on our first 100% original free game, Children of Solarus, with a new screenshot each two weeks. The....",
  "id": "2018-01-21-children-of-solarus-1st-fortnightly-screenshot",
  "image_thumbnail": "../../../../../assets/blog/default_article_thumbnail.jpg",
  "page_override": {
    "meta_description": "",
    "meta_image": "../../../../../assets/images/meta_image_fallback.jpg",
    "meta_title": "Children of Solarus (1st fortnightly screenshot)",
    "parent": "news",
    "slug": "news/2018-01-21-children-of-solarus-1st-fortnightly-screenshot",
    "title": "Children of Solarus (1st fortnightly screenshot)"
  },
  "page_slug": "news/2018-01-21-children-of-solarus-1st-fortnightly-screenshot",
  "publish": true,
  "title": "Children of Solarus (1st fortnightly screenshot)"
}