{
  "authors": [
    "Christopho"
  ],
  "categories": [
    "Solarus"
  ],
  "creation_date": "2002-04-09",
  "excerpt": "Nous sommes fiers de vous annoncer Zelda : Mystery of Solarus est terminé depuis cet après-midi !\n\nLes testeurs sont actuellement en train de faire....",
  "id": "2002-04-09-le-jeu-est-termine",
  "image_thumbnail": "../../../../../assets/blog/default_article_thumbnail.jpg",
  "page_override": {
    "meta_description": "",
    "meta_image": "../../../../../assets/images/meta_image_fallback.jpg",
    "meta_title": "Le jeu est terminé !",
    "parent": "news",
    "slug": "news/2002-04-09-le-jeu-est-termine",
    "title": "Le jeu est terminé !"
  },
  "page_slug": "news/2002-04-09-le-jeu-est-termine",
  "publish": true,
  "title": "Le jeu est terminé !"
}