{
  "age": "Tous publics",
  "authors": ["Legofarmen"],
  "controls": ["keyboard", "gamepad"],
  "downloads": [
    {
      "content": "downloads/any.md",
      "file": "https://gitlab.com/syllan-games/patched-tunics/-/jobs/artifacts/0.3+ci/raw/tunics-0.3+ci.solarus?job=quest-package",
      "label": ".solarus file",
      "platform": "any",
      "version": "0.3+ci"
    }
  ],
  "excerpt": "Un Rogue-like généré aléatoirement dans l'univers de Zelda.",
  "icons": {
    "128x128": "icons/icon_128x128.png",
    "16x16": "icons/icon_16x16.png",
    "32x32": "icons/icon_32x32.png",
    "64x64": "icons/icon_64x64.png"
  },
  "id": "game-tunics",
  "image_cover": "images/cover.jpg",
  "image_logo": "images/logo.png",
  "image_logo_author": "../../../assets/authors/legofarmen.png",
  "image_thumbnail": "images/thumbnail.png",
  "languages": [
    "en"
  ],
  "licenses": ["GPL v3", "Propriétaire (usage raisonnable)"],
  "medias": [
    {
      "image": "medias/screen_1.png",
      "thumbnail": "medias/screen_1.png",
      "type": "image"
    },
    {
      "image": "medias/screen_2.png",
      "thumbnail": "medias/screen_2.png",
      "type": "image"
    },
    {
      "image": "medias/screen_3.png",
      "thumbnail": "medias/screen_3.png",
      "type": "image"
    },
    {
      "image": "medias/screen_4.png",
      "thumbnail": "medias/screen_4.png",
      "type": "image"
    }
  ],
  "page_override": {
    "meta_description": "Un Rogue-like amateur fait avec Solarus dans l'univers de Zelda.",
    "meta_image": "images/thumbnail.png",
    "meta_title": "Tunics!",
    "slug": "games/tunics",
    "title": "Tunics!"
  },
  "page_slug": "games/tunics",
  "min_players": 1,
  "max_players": 1,
  "publish": true,
  "release_date": "2015-09-09",
  "solarus_version": "1.5.3",
  "source_code": "https://github.com/Legofarmen/tunics",
  "states": ["Publié"],
  "title": "Tunics!",
  "types": ["Rogue-like"],
  "version": "0.3+ci"
}
