{
  "age": "Tous publics",
  "authors": [
    "Solarus Team"
  ],
  "controls": [
    "keyboard",
    "mouse-pointer",
    "gamepad",
    "hand-point-up"
  ],
  "downloads": [],
  "excerpt": "Un remake 100% libre et open-source de *The Legend of Zelda: Mystery of Solarus DX* (qui était déjà un remake).",
  "icons": {
    "128x128": "icons/default_quest_icon_128x128.png",
    "16x16": "icons/default_quest_icon_16x16.png",
    "32x32": "icons/default_quest_icon_32x32.png",
    "64x64": "icons/default_quest_icon_64x64.png"
  },
  "id": "game-children-of-solarus",
  "image_cover": "images/cover.jpg",
  "image_logo": "images/logo.png",
  "image_logo_author": "../../../assets/authors/solarus_team.png",
  "image_thumbnail": "images/thumbnail.png",
  "languages": [
    "en",
    "fr",
    "es"
  ],
  "licenses": [
    "GPL v3",
    "CC-BY-SA 4.0"
  ],
  "medias": [
    {
      "image": "medias/screen_1.png",
      "thumbnail": "medias/screen_1.png",
      "type": "image"
    },
    {
      "image": "medias/screen_2.png",
      "thumbnail": "medias/screen_2.png",
      "type": "image"
    },
    {
      "image": "medias/screen_3.png",
      "thumbnail": "medias/screen_3.png",
      "type": "image"
    },
    {
      "image": "medias/screen_4.png",
      "thumbnail": "medias/screen_4.png",
      "type": "image"
    }
  ],
  "page_override": {
    "meta_description": "Le remake 100% libre de Zelda Mystery of Solarus DX.",
    "meta_image": "images/thumbnail.png",
    "meta_title": "Children of Solarus",
    "slug": "games/children-of-solarus",
    "title": "Children of Solarus"
  },
  "page_slug": "games/children-of-solarus",
  "min_players": 1,
  "max_players": 1,
  "publish": true,
  "release_date": "",
  "solarus_version": "1.6.x",
  "source_code": "https://gitlab.com/solarus-games/children-of-solarus",
  "states": [
    "En développement"
  ],
  "title": "Children of Solarus",
  "types": [
    "Action-RPG",
    "Aventure"
  ],
  "version": "-"
}
