{
  "content": {
    "is_filter": false,
    "label": "Content",
    "type": "content"
  },
  "delegate_entity_type": {
    "is_filter": false,
    "label": "Delegate entity type",
    "type": "string"
  },
  "delegate_entity_id": {
    "is_filter": false,
    "label": "Delegate entity id",
    "type": "string"
  },
  "has_breadcrumb": {
    "is_filter": false,
    "label": "Has breadcrumb?",
    "type": "boolean"
  },
  "meta_description": {
    "is_filter": false,
    "label": "Meta description",
    "type": "string"
  },
  "meta_image": {
    "is_filter": false,
    "label": "Image",
    "required": true,
    "type": "image"
  },
  "meta_robots": {
    "is_filter": false,
    "label": "Meta robots",
    "type": "string"
  },
  "meta_title": {
    "is_filter": false,
    "label": "Meta title",
    "type": "string"
  },
  "parent": {
    "is_filter": false,
    "label": "Parent",
    "type": "string"
  },
  "publish": {
    "is_filter": false,
    "label": "Public page?",
    "type": "boolean"
  },
  "slug": {
    "is_filter": false,
    "label": "Slug",
    "type": "string"
  },
  "title": {
    "is_filter": false,
    "label": "Title",
    "type": "string"
  }
}