{
  "authors": [
    "Christopho"
  ],
  "categories": [
    "Solarus"
  ],
  "creation_date": "2003-05-04",
  "excerpt": "Il faut bien le reconnaùtre, notre chat IRC (dialogue en direct) était toujours désert ou presque jusqu'à maintenant. Pour y remédier, nous....",
  "id": "2003-05-04-agrandissement-du-chat",
  "image_thumbnail": "../../../../../assets/blog/default_article_thumbnail.jpg",
  "page_override": {
    "meta_description": "",
    "meta_image": "../../../../../assets/images/meta_image_fallback.jpg",
    "meta_title": "Agrandissement du chat !",
    "parent": "news",
    "slug": "news/2003-05-04-agrandissement-du-chat",
    "title": "Agrandissement du chat !"
  },
  "page_slug": "news/2003-05-04-agrandissement-du-chat",
  "publish": true,
  "title": "Agrandissement du chat !"
}