{
  "authors": [
    "Olivier Cléro"
  ],
  "categories": [
    "Games"
  ],
  "creation_date": "2021-01-21",
  "excerpt": "Max Mraz a réalisé le premier jeu Solarus à être publié sur Steam !",
  "id": "article-2021-01-21-oceans-heart-game-release",
  "image_thumbnail": "images/cover.jpg",
  "page_override": {
    "meta_description": "Max Mraz a réalisé le premier jeu Solarus à être publié sur Steam !",
    "meta_image": "images/cover.jpg",
    "meta_title": "Sortie du jeu Ocean's Heart",
    "parent": "news",
    "slug": "news/2021-01-21-oceans-heart-game-release",
    "title": "Sortie du jeu Ocean's Heart"
  },
  "page_slug": "news/2021-01-21-oceans-heart-game-release",
  "publish": true,
  "title": "Sortie du jeu Ocean's Heart"
}
