{
  "authors": [
    "Olivier Cléro"
  ],
  "categories": [
    "Solarus", "Games"
  ],
  "creation_date": "2022-04-01",
  "excerpt": "We have an update to share about the launch timing of this much anticipated game.",
  "id": "article-2022-04-01-mercuris-chest-report",
  "image_thumbnail": "images/cover.png",
  "page_override": {
    "meta_description": "We have an update to share about the launch timing of this much anticipated game.",
    "meta_image": "images/cover.png",
    "meta_title": "Release date for The Legend of Zelda: Mercuris' Chest",
    "parent": "news",
    "slug": "news/2022-04-01-mercuris-chest-report",
    "title": "Release date for The Legend of Zelda: Mercuris' Chest"
  },
  "page_slug": "news/2022-04-01-mercuris-chest-report",
  "publish": true,
  "title": "Release date for The Legend of Zelda: Mercuris' Chest"
}
