{
  "excerpt": "How to convert static tiles to dynamic ones, to allow disabling, enabling or modification.",
  "id": "book-chapter-solarus-video-tutorial-basics-dynamic-tiles",
  "index": 24,
  "origin_tree": "development/tutorials/solarus-video-tutorial",
  "page_override": {
    "meta_description": "How to convert static tiles to dynamic ones, to allow disabling, enabling or modification.",
    "meta_image": "../../../../book/tutorial/solarus-video-tutorial/images/thumbnail.png",
    "meta_title": "Dynamic tiles",
    "parent": "development/tutorials/solarus-video-tutorial",
    "slug": "development/tutorials/solarus-video-tutorial/dynamic-tiles",
    "title": "Dynamic tiles"
  },
  "page_slug": "development/tutorials/solarus-video-tutorial/dynamic-tiles",
  "publish": true,
  "title": "Dynamic tiles"
}
