{
  "excerpt": "Migration guide from Solarus 1.4 to Solarus 1.5.",
  "id": "book-chapter-solarus-official-guide-migration-from-v1.4-to-v1.5",
  "image_thumbnail": "images/thumbnail.png",
  "index": 5,
  "origin_tree": "development/tutorials/solarus-official-guide",
  "page_override": {
    "meta_description": "Migration guide from Solarus 1.4 to Solarus 1.5.",
    "meta_image": "../../../../book/tutorial/solarus-official-guide/images/thumbnail.png",
    "meta_title": "From v1.4 to v1.5",
    "parent": "development/tutorials/solarus-official-guide/migration",
    "slug": "development/tutorials/solarus-official-guide/migration/from-v1-4-to-v1-5",
    "title": "From v1.4 to v1.5"
  },
  "page_slug": "development/tutorials/solarus-official-guide/migration/from-v1-4-to-v1-5",
  "publish": true,
  "title": "From v1.4 to v1.5"
}
