{
  "authors": [
    "Olivier Cléro"
  ],
  "categories": [
    "Solarus"
  ],
  "creation_date": "2020-04-12",
  "excerpt": "Une série de corrections importantes, accompagnée d'un nouveau tileset libre.",
  "id": "2020-04-12-solarus-1-6-4-bugfix-release",
  "image_thumbnail": "images/cover.jpg",
  "page_override": {
    "meta_description": "Une série de corrections importantes, accompagnée d'un nouveau tileset libre.",
    "meta_image": "images/cover.jpg",
    "meta_title": "Version de maintenance 1.6.4 pour Solarus",
    "parent": "news",
    "slug": "news/2020-04-12-solarus-1-6-4-bugfix-release",
    "title": "Version de maintenance 1.6.4 pour Solarus"
  },
  "page_slug": "news/2020-04-12-solarus-1-6-4-bugfix-release",
  "publish": true,
  "title": "Version de maintenance 1.6.4 pour Solarus"
}