{
  "authors": [
    "Christopho"
  ],
  "categories": [
    "Solarus"
  ],
  "creation_date": "2003-02-02",
  "excerpt": "Pour ceux qui ne le sauraient pas encore, un petit rappel ne fait pas de mal. ZAP = Zelda : Advanced Project = le titre provisoire de notre prochaine....",
  "id": "2003-02-02-tout-sur-la-demo-de-zap",
  "image_thumbnail": "../../../../../assets/blog/default_article_thumbnail.jpg",
  "page_override": {
    "meta_description": "",
    "meta_image": "../../../../../assets/images/meta_image_fallback.jpg",
    "meta_title": "Tout sur la démo de ZAP !",
    "parent": "news",
    "slug": "news/2003-02-02-tout-sur-la-demo-de-zap",
    "title": "Tout sur la démo de ZAP !"
  },
  "page_slug": "news/2003-02-02-tout-sur-la-demo-de-zap",
  "publish": true,
  "title": "Tout sur la démo de ZAP !"
}