{
  "authors": [
    "Christopho"
  ],
  "categories": [
    "Solarus"
  ],
  "creation_date": "2001-12-25",
  "excerpt": "Voici votre cadeau de noël : six screenshots du niveau 7 !\n\n\n\n\n\n\n\n\n\n\n\n\n\n\n\n\nVous l'avez compris, le niveau 7 est un donjon glacial.\n\nComposé de....",
  "id": "2001-12-25-joyeux-noel",
  "image_thumbnail": "../../../../../assets/blog/default_article_thumbnail.jpg",
  "page_override": {
    "meta_description": "",
    "meta_image": "../../../../../assets/images/meta_image_fallback.jpg",
    "meta_title": "Joyeux Noël !",
    "parent": "news",
    "slug": "news/2001-12-25-joyeux-noel",
    "title": "Joyeux Noël !"
  },
  "page_slug": "news/2001-12-25-joyeux-noel",
  "publish": true,
  "title": "Joyeux Noël !"
}