{
  "authors": [
    "Christopho"
  ],
  "categories": [
    "Solarus"
  ],
  "creation_date": "2002-03-18",
  "excerpt": "Salut à tous !\n\nJ'ai refait les chipsets de la carte du monde, car les anciens graphismes n'avaient pas les vraies couleurs de Zelda 3. Ils étaient....",
  "id": "2002-03-18-nouveaux-graphismes-du-monde",
  "image_thumbnail": "../../../../../assets/blog/default_article_thumbnail.jpg",
  "page_override": {
    "meta_description": "",
    "meta_image": "../../../../../assets/images/meta_image_fallback.jpg",
    "meta_title": "Nouveaux graphismes du monde",
    "parent": "news",
    "slug": "news/2002-03-18-nouveaux-graphismes-du-monde",
    "title": "Nouveaux graphismes du monde"
  },
  "page_slug": "news/2002-03-18-nouveaux-graphismes-du-monde",
  "publish": true,
  "title": "Nouveaux graphismes du monde"
}